<?xml version="1.0" standalone="no"?>
<!DOCTYPE svg PUBLIC "-//W3C//DTD SVG 20010904//EN"
 "http://www.w3.org/TR/2001/REC-SVG-20010904/DTD/svg10.dtd">
<svg version="1.0" xmlns="http://www.w3.org/2000/svg"
 width="700.000000pt" height="700.000000pt" viewBox="0 0 700.000000 700.000000"
 preserveAspectRatio="xMidYMid meet">
<metadata>
Created by potrace 1.11, written by Peter Selinger 2001-2013
</metadata>
<g transform="translate(0.000000,700.000000) scale(0.100000,-0.100000)"
fill="#000000" stroke="none">
<path d="M5762 6980 c-65 -40 -91 -125 -57 -190 8 -16 92 -105 185 -198 94
-93 170 -172 170 -175 0 -2 -248 -253 -551 -556 l-552 -551 -251 251 c-138
138 -262 256 -276 261 -34 14 -84 11 -118 -6 -15 -8 -270 -256 -565 -552
l-538 -537 -257 256 c-224 222 -262 256 -295 263 -84 15 -58 38 -948 -852
l-834 -834 -255 254 c-272 271 -281 278 -359 261 -88 -19 -138 -125 -97 -203
18 -33 622 -635 653 -651 29 -15 92 -13 121 3 13 7 398 387 855 844 l832 831
235 -235 c129 -130 249 -247 267 -261 38 -29 105 -33 149 -9 16 8 270 256 564
550 l535 536 250 -250 c137 -137 263 -254 278 -259 46 -18 92 -13 130 13 19
13 306 295 637 626 l601 601 172 -172 c95 -94 181 -178 192 -185 61 -40 160
-12 199 55 19 33 20 53 21 490 0 251 -3 472 -8 491 -5 19 -19 46 -30 59 -47
51 -53 51 -555 51 -446 -1 -469 -2 -500 -20z"/>
<path d="M6130 5540 c-30 -3 -64 -11 -75 -17 -11 -7 -158 -150 -327 -320 -203
-204 -312 -320 -321 -343 -11 -29 -13 -433 -12 -2380 1 -1290 5 -2359 9 -2376
8 -36 48 -78 89 -93 19 -7 232 -11 641 -11 l613 0 33 23 c19 12 43 38 54 57
20 34 20 41 20 2545 0 2329 -1 2512 -17 2542 -18 34 -301 322 -344 351 -21 13
-57 18 -167 22 -78 3 -166 3 -196 0z"/>
<path d="M4325 4948 c-35 -12 -637 -607 -662 -653 -15 -27 -17 -214 -17 -2080
-1 -1127 2 -2070 6 -2094 9 -51 38 -87 85 -107 48 -21 1228 -21 1276 0 42 18
73 53 84 96 15 57 9 4127 -5 4170 -9 26 -99 123 -330 353 -175 174 -325 317
-334 317 -8 0 -28 2 -44 5 -16 2 -42 -1 -59 -7z"/>
<path d="M2615 4374 c-5 -1 -23 -5 -38 -9 -43 -9 -659 -628 -672 -675 -12 -41
-13 -3536 -1 -3586 8 -36 48 -78 89 -93 19 -7 232 -11 638 -11 656 0 637 -1
686 52 11 12 25 39 30 58 5 19 8 832 8 1806 l-1 1770 -24 35 c-21 29 -558 571
-617 622 -21 18 -78 36 -98 31z"/>
<path d="M232 3194 c-35 -15 -61 -45 -75 -86 -9 -25 -12 -420 -12 -1514 1
-1465 1 -1480 21 -1514 11 -19 35 -45 54 -57 l33 -23 614 0 c659 0 654 0 699
51 11 13 25 35 30 49 6 16 10 551 9 1510 -1 1368 -3 1487 -18 1517 -34 65
-116 96 -182 69 -22 -10 -127 -107 -281 -261 -135 -135 -247 -245 -249 -245
-3 0 -115 111 -251 246 -144 144 -260 252 -279 260 -38 16 -74 15 -113 -2z"/>
</g>
</svg>
